ElapsedTime,Iterations,Conf0.25,Conf0.1,Conf0.05,
1.5968,500000,0.792336,0.477951,0,
3.28875,1000000,0.865397,0.661451,0.320218,
4.97863,1500000,0.896629,0.739906,0.477619,
6.75067,2000000,0.914138,0.783902,0.565906,
8.49288,2500000,0.925912,0.813488,0.625277,
10.2808,3000000,0.9344,0.834821,0.668093,
12.3973,3500000,0.940943,0.851266,0.701097,
14.1864,4000000,0.946104,0.86424,0.727138,
16.0101,4500000,0.950291,0.874765,0.748265,
17.7728,5000000,0.953777,0.883529,0.765856,
19.5379,5500000,0.956757,0.891022,0.780899,
21.3094,6000000,0.959303,0.897425,0.793754,
23.2811,6500000,0.961532,0.903028,0.805004,
25.1285,7000000,0.963467,0.907896,0.814777,
26.9286,7500000,0.96526,0.912403,0.823826,
28.8477,8000000,0.966802,0.916283,0.831617,
30.4982,8484769,1,1,1,
