ElapsedTime,Iterations,Conf0.25,Conf0.1,Conf0.05,
1.606,500000,0.82496,0.559512,0.115227,
3.29681,1000000,0.890458,0.724104,0.445524,
4.99235,1500000,0.917718,0.792627,0.583062,
6.78729,2000000,0.933211,0.831583,0.661267,
8.59604,2500000,0.943504,0.857468,0.713238,
10.4317,3000000,0.950717,0.875612,0.749675,
12.4749,3500000,0.956331,0.889736,0.778037,
14.2812,4000000,0.960603,0.900487,0.799631,
16.0656,4500000,0.964074,0.909223,0.817181,
17.8162,5000000,0.966973,0.916519,0.831838,
19.5663,5500000,0.969406,0.922644,0.844144,
21.3325,6000000,0.971454,0.927802,0.854509,
23.2559,6500000,0.973295,0.932435,0.863818,
25.0971,7000000,0.974883,0.936435,0.871856,
26.8902,7500000,0.976276,0.939944,0.878908,
28.8441,8000000,0.977496,0.943017,0.885085,
30.7446,8500000,0.978622,0.945854,0.890787,
32.6391,9000000,0.979629,0.948391,0.895887,
34.6968,9500000,0.980529,0.950661,0.900451,
36.7276,10000000,0.981369,0.952776,0.904704,
38.6686,10500000,0.982129,0.954693,0.908558,
40.5656,11000000,0.982819,0.956431,0.912054,
42.4487,11500000,0.983453,0.958031,0.91527,
44.3134,12000000,0.984037,0.959503,0.918232,
46.199,12500000,0.984611,0.96095,0.92114,
48.0798,13000000,0.985112,0.962213,0.923682,
49.9942,13500000,0.98561,0.963469,0.926206,
51.8404,14000000,0.986067,0.964621,0.928525,
53.6369,14500000,0.986491,0.965691,0.930676,
55.458,15000000,0.986873,0.966654,0.932615,
57.2654,15500000,0.987257,0.967624,0.934567,
59.0602,16000000,0.987615,0.968527,0.936383,
60.8629,16500000,0.987949,0.969371,0.938081,
62.6448,17000000,0.988262,0.970159,0.939666,
64.4505,17500000,0.988561,0.970914,0.941187,
66.241,18000000,0.988848,0.971638,0.942642,
68.1594,18500000,0.989122,0.97233,0.944036,
70.0939,19000000,0.989379,0.972979,0.945343,
71.8123,19500000,0.989628,0.973608,0.946609,
73.0545,20000000,0.989867,0.97421,0.94782,
73.0545,20000000,0.989867,0.97421,0.94782,
