ElapsedTime,Iterations,Conf0.25,Conf0.1,Conf0.05,
1.61217,500000,0.80382,0.506662,0.00952757,
3.30215,1000000,0.87258,0.679408,0.356131,
4.99951,1500000,0.902298,0.754079,0.505965,
6.76595,2000000,0.919267,0.796725,0.591551,
8.5542,2500000,0.930585,0.82517,0.648642,
10.6419,3000000,0.938826,0.845885,0.69022,
12.6118,3500000,0.944906,0.861174,0.720914,
14.4331,4000000,0.949877,0.873671,0.745999,
16.1933,4500000,0.953886,0.883752,0.766238,
17.9409,5000000,0.957254,0.892221,0.783241,
19.424,5500000,0.960127,0.899446,0.797747,
20.9438,6000000,0.962544,0.905526,0.809957,
22.7981,6500000,0.96464,0.910798,0.820543,
24.6329,7000000,0.966521,0.915531,0.830047,
26.3972,7500000,0.968154,0.919638,0.838296,
28.1608,8000000,0.969636,0.923369,0.845789,
30.0454,8500000,0.970969,0.926722,0.852524,
31.978,9000000,0.972184,0.92978,0.858665,
33.9974,9500000,0.973272,0.932516,0.864162,
36.007,10000000,0.974277,0.935047,0.869246,
37.8837,10500000,0.975204,0.937379,0.87393,
39.5619,11000000,0.976064,0.939546,0.878282,
41.5604,11500000,0.976817,0.94144,0.882089,
43.428,12000000,0.977536,0.94325,0.885726,
43.8244,12113695,1,1,1,
