ElapsedTime,Iterations,Conf0.25,Conf0.1,Conf0.05,
1.71399,500000,0.921474,0.800796,0.597796,
3.53479,1000000,0.960308,0.898728,0.794772,
5.36408,1500000,0.974231,0.933909,0.865627,
7.28938,2000000,0.981347,0.951924,0.901949,
9.34786,2500000,0.9856,0.962709,0.923719,
11.4779,3000000,0.988433,0.969903,0.938256,
13.3887,3500000,0.990422,0.974963,0.94849,
15.3219,4000000,0.991888,0.978699,0.956056,
17.171,4500000,0.992989,0.981509,0.961752,
19.0143,5000000,0.993836,0.983677,0.966153,
20.8558,5500000,0.994533,0.985461,0.969777,
22.9587,6000000,0.995093,0.9869,0.972704,
24.8066,6500000,0.995562,0.988103,0.975153,
26.6804,7000000,0.995948,0.989098,0.977181,
28.6066,7500000,0.996282,0.989958,0.978936,
30.5572,8000000,0.996565,0.990692,0.980434,
32.5772,8500000,0.996808,0.991319,0.981717,
34.6993,9000000,0.997023,0.991876,0.982858,
36.854,9500000,0.997206,0.992353,0.983835,
38.7827,10000000,0.99737,0.992778,0.984707,
40.7699,10500000,0.997513,0.993153,0.985478,
42.7007,11000000,0.997648,0.993504,0.986199,
44.63,11500000,0.997764,0.993809,0.986825,
46.579,12000000,0.99787,0.994085,0.987396,
48.5729,12500000,0.997965,0.994335,0.98791,
50.6581,13000000,0.998053,0.994567,0.98839,
52.5607,13500000,0.99813,0.994769,0.988807,
54.4624,14000000,0.998204,0.994963,0.989209,
56.3813,14500000,0.998271,0.995141,0.989577,
58.2483,15000000,0.998333,0.995304,0.989916,
60.1382,15500000,0.998389,0.995453,0.990225,
62.0076,16000000,0.998442,0.995595,0.990519,
63.8878,16500000,0.998491,0.995725,0.990788,
65.7683,17000000,0.998537,0.995848,0.991045,
67.7909,17500000,0.99858,0.995962,0.991282,
69.8441,18000000,0.998618,0.996064,0.991496,
71.6039,18500000,0.998655,0.996162,0.991701,
73.1601,19000000,0.998688,0.996251,0.991887,
74.3828,19500000,0.99872,0.996339,0.992069,
75.3492,20000000,0.998751,0.99642,0.992239,
75.3492,20000000,0.998751,0.99642,0.992239,
