ElapsedTime,Iterations,Conf0.25,Conf0.1,Conf0.05,
0.00642395,10000,0.912368,0.760499,0.494152,
0.0143207,20000,0.942114,0.840845,0.662708,
0.0235703,30000,0.952277,0.868901,0.722304,
0.033594,40000,0.959738,0.889136,0.764849,
0.0440496,50000,0.96442,0.901917,0.791828,
0.0549632,60000,0.967691,0.910892,0.810824,
0.0668424,70000,0.969939,0.917128,0.82411,
0.0781552,80000,0.971857,0.922422,0.835352,
0.0891579,90000,0.973441,0.926795,0.844641,
0.0997507,100000,0.974908,0.930811,0.853133,
0.109754,110000,0.97587,0.933517,0.858939,
0.120676,120000,0.976756,0.935995,0.864241,
0.132785,130000,0.97715,0.937211,0.866976,
0.143621,140000,0.978002,0.939547,0.87192,
0.153752,150000,0.978568,0.941146,0.875361,
0.161909,160000,0.979135,0.942731,0.878752,
0.171089,170000,0.979862,0.944702,0.882894,
0.179328,180000,0.980226,0.945752,0.885177,
0.188645,190000,0.980666,0.946979,0.8878,
0.197185,200000,0.981215,0.948471,0.890939,
0.210244,210000,0.981627,0.949611,0.893364,
0.219988,220000,0.981768,0.950065,0.894407,
0.228516,230000,0.982059,0.95089,0.896182,
0.237841,240000,0.982294,0.951568,0.897655,
0.247102,250000,0.982562,0.952322,0.899275,
0.25609,260000,0.982804,0.953004,0.900744,
0.265369,270000,0.983015,0.953607,0.902048,
0.275856,280000,0.983249,0.954263,0.903453,
0.287182,290000,0.98352,0.955007,0.905029,
0.298077,300000,0.983633,0.955353,0.905805,
0.309001,310000,0.983859,0.955981,0.90714,
0.320273,320000,0.983964,0.956299,0.907852,
0.331109,330000,0.98407,0.956619,0.908566,
0.342274,340000,0.984287,0.957216,0.909828,
0.353325,350000,0.984403,0.957556,0.910574,
0.364197,360000,0.984514,0.957881,0.911289,
0.375035,370000,0.984567,0.958061,0.911708,
0.38671,380000,0.9847,0.958437,0.912519,
0.398366,390000,0.984776,0.95867,0.913041,
0.411237,400000,0.984927,0.95909,0.913934,
0.423392,410000,0.985003,0.959319,0.914446,
0.434199,420000,0.985076,0.959539,0.914936,
0.445229,430000,0.98521,0.959911,0.915728,
0.456102,440000,0.985212,0.959951,0.915854,
0.466891,450000,0.98524,0.960057,0.916111,
0.477771,460000,0.98525,0.960114,0.91627,
0.488908,470000,0.985311,0.960298,0.91668,
0.500021,480000,0.985336,0.960392,0.91691,
0.510342,490000,0.985393,0.960565,0.917295,
0.520013,500000,0.98548,0.960811,0.917825,
0.531025,510000,0.985524,0.960951,0.918142,
0.541963,520000,0.985605,0.961182,0.91864,
0.553194,530000,0.985624,0.961254,0.918821,
0.564028,540000,0.985731,0.961548,0.919442,
0.574955,550000,0.98579,0.961721,0.919823,
0.585952,560000,0.98584,0.961872,0.920156,
0.59676,570000,0.98591,0.962071,0.920585,
0.607927,580000,0.985985,0.962281,0.921036,
0.619088,590000,0.986091,0.962569,0.921642,
0.630015,600000,0.98614,0.962715,0.921963,
0.641072,610000,0.986103,0.962643,0.921849,
0.651892,620000,0.986158,0.962801,0.922193,
0.662923,630000,0.986167,0.962844,0.922305,
0.673788,640000,0.98625,0.963073,0.922791,
0.684385,650000,0.986313,0.96325,0.92317,
0.695413,660000,0.986356,0.963376,0.923448,
0.706624,670000,0.98641,0.96353,0.92378,
0.717374,680000,0.986445,0.963635,0.924015,
0.728649,690000,0.986438,0.963637,0.924041,
0.739817,700000,0.986506,0.963824,0.92444,
0.750677,710000,0.986572,0.964007,0.924829,
0.761598,720000,0.986609,0.964116,0.925069,
0.772158,730000,0.986645,0.964223,0.925304,
0.782963,740000,0.986713,0.964409,0.925697,
0.793554,750000,0.986752,0.964523,0.925946,
0.80434,760000,0.98678,0.964609,0.926138,
0.815021,770000,0.986818,0.964719,0.926378,
0.825717,780000,0.986866,0.964852,0.926664,
0.836362,790000,0.986892,0.964932,0.926843,
0.846967,800000,0.986902,0.964972,0.926943,
0.857447,810000,0.986922,0.965037,0.927091,
0.868005,820000,0.986962,0.96515,0.927335,
0.878672,830000,0.986967,0.965176,0.927404,
0.889295,840000,0.986986,0.965237,0.927545,
0.899863,850000,0.987014,0.965321,0.92773,
0.910355,860000,0.987038,0.965392,0.927889,
0.920917,870000,0.987065,0.965473,0.928068,
0.931394,880000,0.987096,0.965564,0.928266,
0.942453,890000,0.987127,0.965653,0.928461,
0.953914,900000,0.987135,0.965686,0.928541,
0.965046,910000,0.987165,0.965772,0.928731,
0.976694,920000,0.987173,0.965803,0.928808,
0.987455,930000,0.987215,0.96592,0.929056,
0.998012,940000,0.987252,0.966024,0.929279,
1.00862,950000,0.987255,0.966042,0.929329,
1.01915,960000,0.987282,0.966122,0.929504,
1.0297,970000,0.987314,0.966211,0.929697,
1.04029,980000,0.987357,0.96633,0.929948,
1.05074,990000,0.987347,0.966315,0.929931,
1.0616,1000000,0.987385,0.96642,0.930156,
1.07205,1010000,0.987415,0.966504,0.930337,
1.08263,1020000,0.987404,0.966489,0.93032,
1.09335,1030000,0.987437,0.966581,0.930517,
1.10386,1040000,0.98745,0.966623,0.930614,
1.1144,1050000,0.987437,0.966599,0.930577,
1.12487,1060000,0.987457,0.966659,0.930711,
1.13545,1070000,0.987496,0.966766,0.930937,
1.14605,1080000,0.987531,0.966862,0.93114,
1.15656,1090000,0.987535,0.966883,0.931194,
1.16723,1100000,0.987576,0.966994,0.931429,
1.17779,1110000,0.98761,0.967086,0.931624,
1.18821,1120000,0.987639,0.967167,0.931798,
1.1987,1130000,0.987657,0.967221,0.931917,
1.20947,1140000,0.987661,0.967239,0.931963,
1.22032,1150000,0.987654,0.967231,0.931958,
1.2309,1160000,0.987658,0.967249,0.932004,
1.24136,1170000,0.987679,0.967309,0.932136,
1.25179,1180000,0.987706,0.967386,0.9323,
1.26232,1190000,0.98771,0.967402,0.932344,
1.27253,1200000,0.987743,0.967494,0.932538,
1.28073,1210000,0.987733,0.967477,0.932514,
1.28874,1220000,0.987737,0.967493,0.932556,
1.29671,1230000,0.987756,0.96755,0.932679,
1.30481,1240000,0.98775,0.967541,0.932672,
1.31288,1250000,0.987725,0.967485,0.932569,
1.32096,1260000,0.987744,0.967541,0.932691,
1.32895,1270000,0.98776,0.967589,0.932795,
1.33727,1280000,0.987773,0.967628,0.932882,
1.34546,1290000,0.987814,0.967736,0.933108,
1.35358,1300000,0.987826,0.967774,0.933193,
1.36158,1310000,0.987841,0.967818,0.933291,
1.36955,1320000,0.987865,0.967885,0.933434,
1.37762,1330000,0.987898,0.967974,0.93362,
1.38571,1340000,0.987921,0.968039,0.933759,
1.3946,1350000,0.98793,0.968067,0.933823,
1.40659,1360000,0.987947,0.968116,0.933929,
1.41465,1370000,0.987955,0.968142,0.933991,
1.42279,1380000,0.987966,0.968176,0.934067,
1.43144,1390000,0.987994,0.968252,0.934228,
1.43963,1400000,0.988001,0.968278,0.934287,
1.44821,1410000,0.988012,0.96831,0.934359,
1.45617,1420000,0.988022,0.968342,0.934431,
1.4645,1430000,0.988002,0.968297,0.934349,
1.47249,1440000,0.988026,0.968364,0.93449,
1.4807,1450000,0.988053,0.968436,0.934643,
1.48874,1460000,0.988071,0.968488,0.934753,
1.49793,1470000,0.98807,0.968491,0.934767,
1.50622,1480000,0.988088,0.968541,0.934876,
1.51453,1490000,0.988095,0.968564,0.934929,
1.52274,1500000,0.988088,0.968554,0.934916,
1.53087,1510000,0.988106,0.968603,0.935022,
1.53895,1520000,0.988123,0.968652,0.935127,
1.54771,1530000,0.988109,0.968622,0.935073,
1.55571,1540000,0.988116,0.968644,0.935125,
1.56381,1550000,0.988138,0.968705,0.935254,
1.57187,1560000,0.988147,0.968733,0.935317,
1.58009,1570000,0.988141,0.968723,0.935303,
1.58857,1580000,0.988165,0.968789,0.935442,
1.59771,1590000,0.988179,0.968829,0.935528,
1.6059,1600000,0.988196,0.968874,0.935627,
1.61395,1610000,0.988187,0.968858,0.9356,
1.62208,1620000,0.9882,0.968897,0.935684,
1.63026,1630000,0.988216,0.968941,0.93578,
1.63845,1640000,0.988222,0.968961,0.935827,
1.64661,1650000,0.988207,0.968927,0.935763,
1.65479,1660000,0.988201,0.968917,0.935749,
1.66297,1670000,0.988209,0.968943,0.935808,
1.671,1680000,0.988229,0.968998,0.935925,
1.67915,1690000,0.988224,0.968988,0.935911,
1.68744,1700000,0.988237,0.969025,0.935991,
1.6955,1710000,0.988254,0.969074,0.936094,
1.70377,1720000,0.988264,0.969104,0.936161,
1.71174,1730000,0.988275,0.969134,0.936228,
1.71988,1740000,0.988285,0.969164,0.936294,
1.72784,1750000,0.988279,0.969154,0.936279,
1.73586,1760000,0.988298,0.969207,0.936389,
1.74386,1770000,0.988295,0.969202,0.936386,
1.75188,1780000,0.988309,0.969242,0.936473,
1.75992,1790000,0.988319,0.969271,0.936536,
1.76796,1800000,0.988342,0.969333,0.936666,
1.776,1810000,0.988332,0.969312,0.936628,
1.78413,1820000,0.988348,0.969357,0.936723,
1.79219,1830000,0.988342,0.969346,0.936708,
1.80027,1840000,0.988334,0.969331,0.936682,
1.80839,1850000,0.988342,0.969353,0.936733,
1.81711,1860000,0.988364,0.969413,0.936858,
1.82505,1870000,0.988371,0.969435,0.936907,
1.83335,1880000,0.988379,0.969457,0.936956,
1.8416,1890000,0.988405,0.969526,0.9371,
1.84978,1900000,0.988397,0.969511,0.937074,
1.86056,1910000,0.988395,0.969511,0.937079,
1.86839,1920000,0.988423,0.969584,0.937231,
1.87739,1930000,0.98843,0.969605,0.937277,
1.88954,1940000,0.988441,0.969636,0.937344,
1.90173,1950000,0.988439,0.969636,0.937349,
1.91462,1960000,0.988448,0.969661,0.937405,
1.9269,1970000,0.98845,0.969671,0.93743,
1.93864,1980000,0.988467,0.969716,0.937525,
1.95061,1990000,0.988474,0.969736,0.937569,
1.96267,2000000,0.988454,0.969691,0.937484,
1.97276,2010000,0.988464,0.969721,0.937548,
1.98299,2020000,0.988481,0.969765,0.937641,
1.99436,2030000,0.988475,0.969755,0.937626,
2.00532,2040000,0.988472,0.96975,0.93762,
2.0174,2050000,0.988482,0.969779,0.937683,
2.02958,2060000,0.988494,0.969813,0.937755,
2.04066,2070000,0.988495,0.969817,0.937768,
2.05195,2080000,0.988503,0.969841,0.93782,
2.06263,2090000,0.988505,0.96985,0.937843,
2.07343,2100000,0.988505,0.969854,0.937856,
2.08406,2110000,0.988523,0.969902,0.937955,
2.09466,2120000,0.988531,0.969925,0.938005,
2.10525,2130000,0.988522,0.969905,0.937971,
2.11578,2140000,0.988526,0.969919,0.938003,
2.1265,2150000,0.988534,0.969942,0.938052,
2.1375,2160000,0.988545,0.969974,0.93812,
2.14972,2170000,0.988557,0.970005,0.938188,
2.16225,2180000,0.988559,0.970014,0.938209,
2.17379,2190000,0.988557,0.970013,0.938212,
2.18484,2200000,0.988567,0.97004,0.938269,
2.19653,2210000,0.988576,0.970066,0.938326,
2.20772,2220000,0.988592,0.97011,0.938419,
2.21857,2230000,0.988603,0.970141,0.938484,
2.22922,2240000,0.988611,0.970162,0.93853,
2.23973,2250000,0.988604,0.970148,0.938505,
2.25087,2260000,0.988621,0.970195,0.938605,
2.26124,2270000,0.988634,0.970229,0.938677,
2.27153,2280000,0.988648,0.970268,0.938757,
2.2816,2290000,0.98866,0.970301,0.938828,
2.2916,2300000,0.988676,0.970343,0.938916,
2.30183,2310000,0.988671,0.970333,0.938899,
2.31213,2320000,0.98866,0.97031,0.938857,
2.32166,2330000,0.988662,0.970317,0.938875,
2.33116,2340000,0.988677,0.970358,0.938962,
2.34105,2350000,0.988691,0.970395,0.939039,
2.35069,2360000,0.988692,0.970402,0.939056,
2.35971,2370000,0.988704,0.970434,0.939124,
2.36906,2380000,0.988699,0.970424,0.939108,
2.37833,2390000,0.988719,0.970477,0.939217,
2.38691,2400000,0.988727,0.9705,0.939267,
2.39519,2410000,0.98873,0.970511,0.939292,
2.40332,2420000,0.988737,0.970529,0.939333,
2.41089,2430000,0.988737,0.970532,0.939341,
2.41864,2440000,0.988743,0.97055,0.939382,
2.42612,2450000,0.988741,0.970548,0.939382,
2.43382,2460000,0.988748,0.970567,0.939422,
2.44014,2470000,0.988754,0.970585,0.939462,
2.4458,2480000,0.98875,0.970579,0.939454,
2.45135,2490000,0.988761,0.970609,0.939518,
2.45689,2500000,0.98876,0.970608,0.939517,
2.45689,2500000,0.98876,0.970608,0.939517,
