ElapsedTime,Iterations,Conf0.25,Conf0.1,Conf0.05,
0.0058689,10000,0.881995,0.684567,0.342289,
0.013256,20000,0.916881,0.777764,0.536546,
0.0224611,30000,0.931773,0.817643,0.619787,
0.0323228,40000,0.939346,0.838155,0.662887,
0.0417207,50000,0.945779,0.855316,0.698626,
0.0530594,60000,0.949363,0.865071,0.719182,
0.0625467,70000,0.953121,0.875085,0.740023,
0.0735144,80000,0.956076,0.882969,0.756447,
0.0853741,90000,0.957212,0.886224,0.7635,
0.0971758,100000,0.959213,0.891575,0.774661,
0.107977,110000,0.960271,0.894519,0.780944,
0.118981,120000,0.961484,0.897816,0.787883,
0.129567,130000,0.962387,0.900304,0.793162,
0.140421,140000,0.963571,0.903469,0.799763,
0.152996,150000,0.964238,0.905322,0.803713,
0.163938,160000,0.964527,0.906211,0.805711,
0.174679,170000,0.965018,0.907592,0.808673,
0.185309,180000,0.96549,0.908911,0.811495,
0.196146,190000,0.966067,0.910483,0.814807,
0.206859,200000,0.966597,0.911927,0.817851,
0.217661,210000,0.967278,0.913738,0.821617,
0.228906,220000,0.967576,0.914587,0.823451,
0.239649,230000,0.967936,0.915582,0.825567,
0.250543,240000,0.968377,0.916775,0.82807,
0.261457,250000,0.968582,0.917371,0.829372,
0.2723,260000,0.968784,0.917955,0.830645,
0.283223,270000,0.968925,0.918382,0.831598,
0.294291,280000,0.969128,0.91896,0.832847,
0.305372,290000,0.969164,0.919117,0.833249,
0.316068,300000,0.969245,0.919383,0.833865,
0.326879,310000,0.969349,0.919706,0.83459,
0.337647,320000,0.969482,0.920095,0.835445,
0.348374,330000,0.969678,0.92064,0.836607,
0.359583,340000,0.96974,0.920847,0.837089,
0.370403,350000,0.969923,0.921356,0.838175,
0.3812,360000,0.970106,0.921862,0.839251,
0.392175,370000,0.970247,0.922259,0.840106,
0.402719,380000,0.970464,0.922847,0.84134,
0.414329,390000,0.970609,0.923252,0.842206,
0.425506,400000,0.970657,0.923413,0.842581,
0.436584,410000,0.97077,0.923736,0.843279,
0.447408,420000,0.970974,0.924284,0.844425,
0.45814,430000,0.970955,0.924274,0.844453,
0.46887,440000,0.970973,0.924354,0.84466,
0.479652,450000,0.970972,0.924387,0.844772,
0.490337,460000,0.970998,0.924484,0.84501,
0.501219,470000,0.971074,0.924707,0.845497,
0.512077,480000,0.97103,0.924628,0.845382,
0.522874,490000,0.971013,0.924616,0.845397,
0.534571,500000,0.971189,0.925083,0.84637,
0.545777,510000,0.971271,0.925319,0.846879,
0.556394,520000,0.971259,0.925315,0.846907,
0.567301,530000,0.971352,0.925575,0.847463,
0.578296,540000,0.971457,0.925864,0.848075,
0.588942,550000,0.971449,0.925869,0.848119,
0.599712,560000,0.971434,0.925857,0.848127,
0.610505,570000,0.971519,0.926092,0.848629,
0.620996,580000,0.971497,0.926062,0.848598,
0.631745,590000,0.97151,0.926117,0.848739,
0.642487,600000,0.971463,0.926022,0.848578,
0.653312,610000,0.971444,0.925996,0.848554,
0.664084,620000,0.971387,0.925874,0.848339,
0.674755,630000,0.971414,0.925963,0.848545,
0.685694,640000,0.971416,0.925988,0.848621,
0.696571,650000,0.971425,0.926029,0.848727,
0.707318,660000,0.971505,0.92625,0.849195,
0.718246,670000,0.971506,0.926271,0.849263,
0.729412,680000,0.971578,0.926469,0.849682,
0.740021,690000,0.97166,0.926691,0.850149,
0.751054,700000,0.971665,0.926721,0.850233,
0.762336,710000,0.971687,0.926793,0.8504,
0.773138,720000,0.971769,0.927016,0.850869,
0.783796,730000,0.971789,0.927084,0.851025,
0.794484,740000,0.971858,0.927271,0.851421,
0.805181,750000,0.971962,0.927547,0.851995,
0.815567,760000,0.971948,0.927528,0.851976,
0.826192,770000,0.971971,0.9276,0.85214,
0.8366,780000,0.972029,0.92776,0.852481,
0.847004,790000,0.972025,0.927765,0.85251,
0.857475,800000,0.972102,0.927971,0.85294,
0.867987,810000,0.972181,0.928184,0.853385,
0.878348,820000,0.972225,0.928307,0.853649,
0.888681,830000,0.972272,0.928439,0.853932,
0.899049,840000,0.972367,0.928688,0.854448,
0.909548,850000,0.972369,0.928708,0.854505,
0.919863,860000,0.972451,0.928926,0.854957,
0.930116,870000,0.972444,0.92892,0.854963,
0.940439,880000,0.972523,0.929131,0.855401,
0.950847,890000,0.972588,0.929304,0.855763,
0.96117,900000,0.972619,0.929396,0.855962,
0.972563,910000,0.972567,0.929277,0.855741,
0.983298,920000,0.972581,0.929325,0.85585,
0.994401,930000,0.972604,0.929393,0.856002,
1.00567,940000,0.972648,0.929513,0.856257,
1.01628,950000,0.972665,0.929568,0.856381,
1.0268,960000,0.972653,0.929549,0.856358,
1.0372,970000,0.972724,0.929737,0.856748,
1.0476,980000,0.972704,0.929697,0.856682,
1.05797,990000,0.972741,0.929799,0.856901,
1.06832,1000000,0.972757,0.92985,0.857016,
1.07862,1010000,0.972769,0.92989,0.857109,
1.0893,1020000,0.972765,0.929891,0.857123,
1.0996,1030000,0.9728,0.929989,0.857332,
1.10997,1040000,0.972858,0.930142,0.857652,
1.12032,1050000,0.972911,0.930284,0.857948,
1.13062,1060000,0.972906,0.930282,0.857956,
1.14094,1070000,0.972984,0.930486,0.858376,
1.15128,1080000,0.973016,0.930575,0.858566,
1.16165,1090000,0.973018,0.930589,0.858606,
1.172,1100000,0.973038,0.930649,0.858738,
1.18236,1110000,0.973058,0.930707,0.858867,
1.19292,1120000,0.973099,0.930819,0.859101,
1.20327,1130000,0.973126,0.930894,0.859262,
1.21374,1140000,0.973159,0.930984,0.859455,
1.22417,1150000,0.973191,0.931074,0.859645,
1.23477,1160000,0.973237,0.931197,0.859901,
1.24537,1170000,0.973286,0.931326,0.86017,
1.25571,1180000,0.973293,0.931352,0.860232,
1.26596,1190000,0.97329,0.931352,0.860243,
1.27622,1200000,0.97329,0.931361,0.860271,
1.28655,1210000,0.973304,0.931403,0.860365,
1.29717,1220000,0.973284,0.931362,0.860294,
1.3075,1230000,0.973304,0.93142,0.860419,
1.31778,1240000,0.973324,0.931477,0.860543,
1.3281,1250000,0.973312,0.931453,0.860505,
1.33842,1260000,0.973306,0.931446,0.8605,
1.34872,1270000,0.973269,0.93136,0.860338,
1.3591,1280000,0.973348,0.931565,0.860757,
1.36964,1290000,0.973342,0.931558,0.860752,
1.38007,1300000,0.973367,0.931627,0.8609,
1.39046,1310000,0.973389,0.931689,0.861032,
1.4009,1320000,0.973411,0.931749,0.861161,
1.41124,1330000,0.973459,0.931876,0.861425,
1.42232,1340000,0.973488,0.931957,0.861595,
1.43349,1350000,0.973512,0.932022,0.861734,
1.44376,1360000,0.973523,0.932057,0.861812,
1.45428,1370000,0.973549,0.932128,0.861962,
1.46469,1380000,0.973583,0.932219,0.862153,
1.47508,1390000,0.973571,0.932195,0.862113,
1.48563,1400000,0.973599,0.932271,0.862272,
1.49613,1410000,0.973615,0.932317,0.862374,
1.50654,1420000,0.973628,0.932356,0.86246,
1.51697,1430000,0.973602,0.932297,0.862349,
1.52771,1440000,0.973615,0.932336,0.862434,
1.53826,1450000,0.973625,0.932367,0.862505,
1.54874,1460000,0.973649,0.932433,0.862644,
1.55923,1470000,0.973643,0.932423,0.862631,
1.56972,1480000,0.973642,0.932426,0.862646,
1.58,1490000,0.973687,0.932544,0.862889,
1.59023,1500000,0.973715,0.93262,0.863049,
1.6005,1510000,0.973719,0.932636,0.863088,
1.61084,1520000,0.973713,0.932626,0.863074,
1.62158,1530000,0.97373,0.932674,0.863178,
1.63211,1540000,0.973742,0.932709,0.863255,
1.64256,1550000,0.973759,0.932757,0.863357,
1.65295,1560000,0.973768,0.932785,0.86342,
1.66328,1570000,0.973795,0.932857,0.863571,
1.67364,1580000,0.973844,0.932985,0.863834,
1.68392,1590000,0.973842,0.932986,0.863843,
1.69437,1600000,0.973861,0.933037,0.863952,
1.70489,1610000,0.973886,0.933106,0.864096,
1.71543,1620000,0.973897,0.933137,0.864166,
1.72581,1630000,0.973915,0.933187,0.864271,
1.73607,1640000,0.973898,0.93315,0.864205,
1.74663,1650000,0.973901,0.933163,0.864236,
1.757,1660000,0.973892,0.933145,0.864207,
1.76732,1670000,0.973931,0.933248,0.864419,
1.77765,1680000,0.973951,0.933302,0.864532,
1.7879,1690000,0.973966,0.933343,0.864621,
1.7982,1700000,0.973954,0.933319,0.864579,
1.80843,1710000,0.97399,0.933413,0.864773,
1.81873,1720000,0.974018,0.933488,0.864929,
1.829,1730000,0.974041,0.933551,0.86506,
1.83961,1740000,0.97403,0.933526,0.865018,
1.85002,1750000,0.974044,0.933566,0.865102,
1.86064,1760000,0.974057,0.933604,0.865185,
1.87107,1770000,0.974103,0.933722,0.865426,
1.88239,1780000,0.974123,0.933776,0.86554,
1.89262,1790000,0.97414,0.933824,0.865642,
1.90358,1800000,0.974127,0.933794,0.865588,
1.91565,1810000,0.97412,0.933781,0.865568,
1.92783,1820000,0.974139,0.933835,0.865679,
1.94024,1830000,0.97415,0.933865,0.865746,
1.95245,1840000,0.974152,0.933874,0.865769,
1.9639,1850000,0.97416,0.933899,0.865825,
1.97598,1860000,0.974153,0.933886,0.865804,
1.98787,1870000,0.9742,0.934007,0.866052,
1.99909,1880000,0.974193,0.933994,0.86603,
2.01113,1890000,0.974189,0.933987,0.86602,
2.02187,1900000,0.974203,0.934026,0.866105,
2.03272,1910000,0.974196,0.934013,0.866084,
2.04488,1920000,0.974227,0.934095,0.866252,
2.05682,1930000,0.974233,0.934113,0.866293,
2.0675,1940000,0.974253,0.934167,0.866406,
2.07846,1950000,0.974267,0.934205,0.866487,
2.08899,1960000,0.97427,0.934217,0.866517,
2.09966,1970000,0.974274,0.93423,0.866546,
2.11018,1980000,0.974287,0.934267,0.866626,
2.12047,1990000,0.974311,0.934329,0.866755,
2.13075,2000000,0.974336,0.934396,0.866894,
2.1412,2010000,0.974339,0.934407,0.866921,
2.15239,2020000,0.974348,0.934433,0.866978,
2.16411,2030000,0.974347,0.934435,0.866985,
2.17627,2040000,0.974348,0.934441,0.867002,
2.18867,2050000,0.974367,0.934491,0.867107,
2.19992,2060000,0.974368,0.934497,0.867124,
2.21138,2070000,0.974388,0.934551,0.867237,
2.22272,2080000,0.974399,0.934581,0.867301,
2.23357,2090000,0.974407,0.934606,0.867355,
2.24424,2100000,0.974429,0.934664,0.867475,
2.25467,2110000,0.974436,0.934684,0.867519,
2.26495,2120000,0.974433,0.934679,0.867515,
2.27594,2130000,0.974454,0.934736,0.867633,
2.2859,2140000,0.974438,0.934699,0.867563,
2.29592,2150000,0.974446,0.934723,0.867615,
2.30574,2160000,0.974466,0.934774,0.867722,
2.31542,2170000,0.974464,0.934775,0.867727,
2.32539,2180000,0.974476,0.934807,0.867796,
2.33554,2190000,0.974462,0.934775,0.867737,
2.34507,2200000,0.974472,0.934803,0.867796,
2.35445,2210000,0.974462,0.934781,0.867756,
2.36416,2220000,0.974481,0.934831,0.86786,
2.37396,2230000,0.974492,0.934863,0.867928,
2.38281,2240000,0.974503,0.934894,0.867994,
2.39193,2250000,0.974524,0.934948,0.868105,
2.40121,2260000,0.974519,0.934939,0.868091,
2.41002,2270000,0.974544,0.935005,0.868227,
2.41816,2280000,0.974557,0.935039,0.868301,
2.42648,2290000,0.974573,0.935083,0.868391,
2.43391,2300000,0.974591,0.93513,0.86849,
2.4417,2310000,0.974572,0.935086,0.868406,
2.44911,2320000,0.974565,0.935073,0.868383,
2.4567,2330000,0.974583,0.935119,0.86848,
2.46413,2340000,0.974587,0.935132,0.868509,
2.47161,2350000,0.974594,0.935153,0.868554,
2.47902,2360000,0.974631,0.935249,0.868751,
2.48676,2370000,0.974637,0.935265,0.868787,
2.49446,2380000,0.974649,0.935298,0.868856,
2.50163,2390000,0.974662,0.935334,0.868932,
2.50889,2400000,0.974669,0.935354,0.868975,
2.51593,2410000,0.974667,0.935353,0.868976,
2.52178,2420000,0.974687,0.935405,0.869085,
2.52676,2430000,0.974682,0.935396,0.869069,
2.53173,2440000,0.974684,0.935403,0.869087,
2.53742,2450000,0.974704,0.935454,0.869194,
2.54285,2460000,0.974713,0.935481,0.869251,
2.54759,2470000,0.974705,0.935464,0.869219,
2.55264,2480000,0.974721,0.935507,0.869309,
2.55788,2490000,0.97471,0.935481,0.869261,
2.56269,2500000,0.974715,0.935496,0.869293,
2.5627,2500000,0.974715,0.935496,0.869293,
