ElapsedTime,Iterations,Conf0.25,Conf0.1,Conf0.05,
0.00555492,10000,0.896915,0.721867,0.416888,
0.012278,20000,0.929963,0.810468,0.601953,
0.0198971,30000,0.942394,0.844196,0.672893,
0.0275386,40000,0.95146,0.86844,0.723458,
0.0352236,50000,0.956833,0.882949,0.753893,
0.0433704,60000,0.960319,0.89246,0.77396,
0.0514733,70000,0.96293,0.899607,0.789067,
0.059647,80000,0.965089,0.905502,0.801512,
0.0677149,90000,0.967265,0.911357,0.813765,
0.0757121,100000,0.969092,0.916272,0.824055,
0.0837666,110000,0.970632,0.920422,0.832749,
0.0918145,120000,0.97183,0.92368,0.83961,
0.099855,130000,0.972747,0.926203,0.844961,
0.108319,140000,0.973564,0.928452,0.849729,
0.117799,150000,0.974371,0.930655,0.854379,
0.127875,160000,0.974962,0.932299,0.857887,
0.137289,170000,0.975323,0.933356,0.860201,
0.145734,180000,0.975775,0.934625,0.862922,
0.154264,190000,0.976405,0.936328,0.866497,
0.162952,200000,0.976581,0.936887,0.867771,
0.171823,210000,0.977054,0.938178,0.870498,
0.180215,220000,0.977459,0.939294,0.872864,
0.188569,230000,0.977746,0.940106,0.874615,
0.196932,240000,0.978078,0.941027,0.876575,
0.205211,250000,0.978312,0.941695,0.878021,
0.2134,260000,0.97864,0.942595,0.879925,
0.222062,270000,0.978853,0.943203,0.88124,
0.229994,280000,0.979023,0.943698,0.882323,
0.238011,290000,0.97914,0.944059,0.883133,
0.245742,300000,0.979378,0.944718,0.884534,
0.253533,310000,0.979521,0.945134,0.885446,
0.261302,320000,0.979692,0.945621,0.886496,
0.269237,330000,0.979792,0.945924,0.887175,
0.27765,340000,0.980059,0.946645,0.888687,
0.285167,350000,0.980315,0.947336,0.890135,
0.29266,360000,0.980475,0.947784,0.891094,
0.300012,370000,0.980663,0.948301,0.892189,
0.30731,380000,0.980735,0.948524,0.892693,
0.313318,390000,0.980852,0.948861,0.893423,
0.319375,400000,0.980973,0.949204,0.894163,
0.324531,410000,0.980992,0.949291,0.89439,
0.329611,420000,0.981019,0.949398,0.894653,
0.334829,430000,0.981064,0.949546,0.894999,
0.340188,440000,0.981171,0.949848,0.895649,
0.345735,450000,0.981273,0.950138,0.896273,
0.350825,460000,0.981361,0.950392,0.896826,
0.355829,470000,0.981489,0.950744,0.897573,
0.360715,480000,0.981495,0.95079,0.897706,
0.366236,490000,0.98146,0.950734,0.897633,
0.37121,500000,0.981571,0.951039,0.898282,
0.375789,510000,0.981576,0.951079,0.8984,
0.380301,520000,0.981672,0.951348,0.898974,
0.385055,530000,0.981765,0.951608,0.899528,
0.389681,540000,0.981878,0.951915,0.900177,
0.394167,550000,0.981884,0.951957,0.900294,
0.398859,560000,0.981983,0.952229,0.900871,
0.403391,570000,0.982023,0.952353,0.901151,
0.407893,580000,0.982096,0.95256,0.901594,
0.412429,590000,0.982099,0.95259,0.901685,
0.416981,600000,0.982076,0.952553,0.901641,
0.421506,610000,0.982073,0.952568,0.901698,
0.426036,620000,0.982135,0.952744,0.902078,
0.430822,630000,0.982132,0.952756,0.90213,
0.436175,640000,0.982141,0.9528,0.902244,
0.440639,650000,0.982181,0.95292,0.90251,
0.444997,660000,0.982184,0.952946,0.902587,
0.449374,670000,0.982246,0.953121,0.902962,
0.453827,680000,0.982337,0.953365,0.903475,
0.458189,690000,0.982378,0.953487,0.903742,
0.462517,700000,0.982447,0.953677,0.904146,
0.467229,710000,0.982509,0.953848,0.904511,
0.471506,720000,0.98258,0.954043,0.904923,
0.475766,730000,0.982589,0.954083,0.905024,
0.480025,740000,0.982588,0.954095,0.905069,
0.485407,750000,0.982645,0.954254,0.905408,
0.489895,760000,0.982716,0.954448,0.905817,
0.49406,770000,0.982771,0.9546,0.90614,
0.498852,780000,0.98286,0.954837,0.906634,
0.503268,790000,0.982891,0.95493,0.906839,
0.50752,800000,0.982906,0.954983,0.906965,
0.511792,810000,0.982942,0.955085,0.907187,
0.516254,820000,0.982971,0.955173,0.907381,
0.520566,830000,0.982966,0.955174,0.907402,
0.52467,840000,0.982995,0.95526,0.90759,
0.528745,850000,0.983042,0.955391,0.90787,
0.532887,860000,0.98307,0.955472,0.90805,
0.536995,870000,0.983042,0.955415,0.907951,
0.541091,880000,0.983069,0.955495,0.908128,
0.545166,890000,0.983091,0.955563,0.90828,
0.549248,900000,0.983108,0.955618,0.908407,
0.553326,910000,0.983117,0.955651,0.908488,
0.557401,920000,0.983155,0.955759,0.90872,
0.561471,930000,0.983193,0.955866,0.908948,
0.565557,940000,0.98318,0.955843,0.908916,
0.569629,950000,0.983196,0.955894,0.909034,
0.573698,960000,0.983228,0.955986,0.909233,
0.577763,970000,0.983235,0.956015,0.909305,
0.581825,980000,0.983243,0.956044,0.909376,
0.585894,990000,0.983286,0.956163,0.909628,
0.58996,1000000,0.983301,0.95621,0.909736,
0.594025,1010000,0.983351,0.956346,0.91002,
0.598094,1020000,0.9834,0.956479,0.9103,
0.602165,1030000,0.983449,0.95661,0.910575,
0.606237,1040000,0.983466,0.956662,0.910691,
0.610304,1050000,0.98349,0.956732,0.910844,
0.614372,1060000,0.983517,0.95681,0.911013,
0.618435,1070000,0.983593,0.957009,0.911423,
0.622552,1080000,0.983634,0.957121,0.911659,
0.626633,1090000,0.983649,0.957167,0.911762,
0.630699,1100000,0.983613,0.957085,0.91161,
0.634767,1110000,0.983649,0.957185,0.911822,
0.63884,1120000,0.983682,0.957274,0.912012,
0.64291,1130000,0.983703,0.957336,0.912147,
0.646975,1140000,0.983699,0.957335,0.912156,
0.651039,1150000,0.983734,0.957431,0.912358,
0.655108,1160000,0.983741,0.957455,0.912418,
0.659165,1170000,0.983757,0.957506,0.912529,
0.663235,1180000,0.983794,0.957606,0.912741,
0.66731,1190000,0.983831,0.957705,0.912949,
0.671381,1200000,0.983853,0.957769,0.913088,
0.675456,1210000,0.983889,0.957865,0.91329,
0.679529,1220000,0.98392,0.957952,0.913474,
0.683599,1230000,0.983939,0.958005,0.91359,
0.687679,1240000,0.98395,0.958041,0.913672,
0.692028,1250000,0.983965,0.958085,0.913769,
0.696189,1260000,0.98397,0.958105,0.913818,
0.700264,1270000,0.983946,0.958053,0.913724,
0.704297,1280000,0.983945,0.958057,0.913742,
0.708326,1290000,0.983956,0.958093,0.913821,
0.712358,1300000,0.983949,0.958081,0.913808,
0.7164,1310000,0.983957,0.958108,0.913871,
0.720438,1320000,0.983986,0.958188,0.91404,
0.724467,1330000,0.984027,0.958297,0.914267,
0.728488,1340000,0.98405,0.95836,0.914401,
0.732584,1350000,0.98403,0.958318,0.914326,
0.736643,1360000,0.984005,0.958263,0.914223,
0.740669,1370000,0.984001,0.958259,0.914225,
0.74473,1380000,0.984027,0.958328,0.914371,
0.748787,1390000,0.984008,0.958288,0.9143,
0.752812,1400000,0.984041,0.958378,0.914487,
0.756842,1410000,0.984049,0.958402,0.914544,
0.760914,1420000,0.984073,0.958469,0.914685,
0.764963,1430000,0.984072,0.958472,0.914699,
0.769027,1440000,0.984087,0.958516,0.914796,
0.773065,1450000,0.984116,0.958595,0.91496,
0.777129,1460000,0.984109,0.958583,0.914945,
0.78116,1470000,0.984119,0.958613,0.915012,
0.785189,1480000,0.984123,0.958629,0.915051,
0.789219,1490000,0.984108,0.958598,0.914996,
0.793229,1500000,0.98412,0.958634,0.915076,
0.797262,1510000,0.984138,0.958683,0.915181,
0.801294,1520000,0.984158,0.958738,0.915298,
0.805306,1530000,0.984159,0.958746,0.915322,
0.809332,1540000,0.98416,0.958755,0.915346,
0.813394,1550000,0.984167,0.958776,0.915396,
0.81742,1560000,0.984158,0.958759,0.915368,
0.82145,1570000,0.984177,0.958812,0.915482,
0.825452,1580000,0.98416,0.958776,0.915416,
0.829474,1590000,0.984164,0.958791,0.915453,
0.833501,1600000,0.984168,0.958806,0.915489,
0.837565,1610000,0.984177,0.958833,0.91555,
0.841838,1620000,0.984193,0.958878,0.915647,
0.845945,1630000,0.984204,0.958911,0.915719,
0.850065,1640000,0.984213,0.958937,0.915778,
0.854259,1650000,0.98425,0.959036,0.915982,
0.858558,1660000,0.98428,0.959115,0.916147,
0.862585,1670000,0.984295,0.959158,0.916239,
0.866614,1680000,0.984296,0.959165,0.916258,
0.870651,1690000,0.984297,0.959171,0.916278,
0.874669,1700000,0.984284,0.959143,0.916226,
0.878765,1710000,0.984282,0.959144,0.916235,
0.882796,1720000,0.984264,0.959104,0.916161,
0.886825,1730000,0.984247,0.959065,0.916089,
0.891091,1740000,0.98426,0.959101,0.916167,
0.89513,1750000,0.984281,0.95916,0.91629,
0.8992,1760000,0.984285,0.959172,0.916321,
0.903229,1770000,0.984306,0.95923,0.916443,
0.90726,1780000,0.984323,0.959276,0.91654,
0.911299,1790000,0.984341,0.959327,0.916648,
0.915331,1800000,0.984331,0.959306,0.91661,
0.919373,1810000,0.984356,0.959373,0.91675,
0.923409,1820000,0.984379,0.959434,0.916877,
0.927447,1830000,0.984388,0.959461,0.916938,
0.931473,1840000,0.984411,0.959521,0.917063,
0.935509,1850000,0.984394,0.959483,0.916992,
0.93957,1860000,0.984403,0.95951,0.917052,
0.94361,1870000,0.984399,0.959505,0.917046,
0.947645,1880000,0.984406,0.959526,0.917094,
0.951679,1890000,0.984422,0.959569,0.917184,
0.955777,1900000,0.984426,0.959584,0.917221,
0.959806,1910000,0.984446,0.959637,0.917331,
0.964042,1920000,0.984456,0.959667,0.917397,
0.968079,1930000,0.984442,0.959636,0.91734,
0.972113,1940000,0.984459,0.959682,0.917437,
0.976142,1950000,0.984468,0.959707,0.917492,
0.980332,1960000,0.984491,0.959768,0.917619,
0.984448,1970000,0.984491,0.959773,0.917633,
0.988477,1980000,0.984495,0.959787,0.917666,
0.9925,1990000,0.984488,0.959771,0.91764,
0.996534,2000000,0.98448,0.959756,0.917614,
1.00057,2010000,0.98448,0.95976,0.917627,
1.0046,2020000,0.984487,0.95978,0.917671,
1.00864,2030000,0.984489,0.959789,0.917695,
1.01265,2040000,0.984489,0.959794,0.917708,
1.01668,2050000,0.984488,0.959794,0.917712,
1.02071,2060000,0.984498,0.959822,0.917774,
1.02474,2070000,0.984504,0.959841,0.917817,
1.02877,2080000,0.984516,0.959875,0.917888,
1.0328,2090000,0.984532,0.959917,0.917977,
1.03683,2100000,0.984528,0.959912,0.917971,
1.04085,2110000,0.984529,0.959916,0.917983,
1.04488,2120000,0.984555,0.959986,0.918128,
1.04909,2130000,0.984569,0.960023,0.918206,
1.05313,2140000,0.984573,0.960036,0.918236,
1.05716,2150000,0.984575,0.960044,0.918257,
1.06118,2160000,0.984595,0.960099,0.91837,
1.06524,2170000,0.984592,0.960093,0.918363,
1.06927,2180000,0.984608,0.960137,0.918457,
1.0733,2190000,0.98463,0.960196,0.918577,
1.07731,2200000,0.984643,0.96023,0.918651,
1.08159,2210000,0.984643,0.960233,0.918661,
1.08561,2220000,0.984654,0.960263,0.918725,
1.08964,2230000,0.984662,0.960289,0.91878,
1.0937,2240000,0.984669,0.960309,0.918825,
1.09769,2250000,0.984669,0.960312,0.918834,
1.10179,2260000,0.984683,0.96035,0.918914,
1.10582,2270000,0.984687,0.960361,0.918941,
1.10991,2280000,0.984674,0.960333,0.918889,
1.11393,2290000,0.984674,0.960336,0.918898,
1.11795,2300000,0.984676,0.960343,0.918916,
1.12198,2310000,0.984677,0.96035,0.918934,
1.12601,2320000,0.98467,0.960336,0.918909,
1.13004,2330000,0.984693,0.960394,0.91903,
1.1341,2340000,0.984703,0.960422,0.91909,
1.13812,2350000,0.984706,0.960433,0.919115,
1.14215,2360000,0.984715,0.960457,0.919166,
1.14617,2370000,0.984724,0.960485,0.919226,
1.15019,2380000,0.984733,0.960508,0.919276,
1.15422,2390000,0.984742,0.960535,0.919334,
1.15823,2400000,0.984754,0.960567,0.9194,
1.16225,2410000,0.984739,0.960531,0.919333,
1.16627,2420000,0.98474,0.960538,0.91935,
1.17031,2430000,0.984737,0.960532,0.919341,
1.17433,2440000,0.98475,0.960567,0.919415,
1.17836,2450000,0.984756,0.960585,0.919455,
1.18238,2460000,0.984754,0.960583,0.919454,
1.18641,2470000,0.98476,0.960601,0.919495,
1.19044,2480000,0.984773,0.960636,0.919567,
1.19447,2490000,0.984771,0.960634,0.919566,
1.19848,2500000,0.984777,0.960652,0.919605,
1.19848,2500000,0.984777,0.960652,0.919605,
