ElapsedTime,Iterations,Conf0.25,Conf0.1,Conf0.05,
0.0044897,10000,0.89637,0.720505,0.414165,
0.00951096,20000,0.928751,0.807438,0.595893,
0.0152394,30000,0.942268,0.843879,0.67226,
0.0239274,40000,0.950146,0.865154,0.716885,
0.0334703,50000,0.95529,0.879093,0.74618,
0.0420871,60000,0.959675,0.890851,0.770742,
0.0521803,70000,0.962477,0.898474,0.786801,
0.0623207,80000,0.964332,0.903609,0.797727,
0.0725347,90000,0.965971,0.908121,0.807293,
0.0835189,100000,0.967662,0.912697,0.816905,
0.0933435,110000,0.968452,0.914974,0.821853,
0.102796,120000,0.969723,0.918411,0.829073,
0.111709,130000,0.97062,0.920886,0.834327,
0.121192,140000,0.971742,0.923896,0.840618,
0.131162,150000,0.972474,0.925911,0.844891,
0.140731,160000,0.973376,0.928334,0.849956,
0.152476,170000,0.97382,0.929598,0.852685,
0.161472,180000,0.974567,0.931603,0.856879,
0.168927,190000,0.975089,0.933038,0.859918,
0.178113,200000,0.97556,0.934335,0.862667,
0.187767,210000,0.976108,0.935814,0.865771,
0.1978,220000,0.976551,0.937024,0.868324,
0.207892,230000,0.976703,0.9375,0.869401,
0.217672,240000,0.976993,0.938313,0.871147,
0.22793,250000,0.97727,0.939091,0.872813,
0.237923,260000,0.977523,0.939802,0.874339,
0.247932,270000,0.97762,0.940119,0.875072,
0.257983,280000,0.977764,0.940551,0.876028,
0.267907,290000,0.97797,0.941134,0.877283,
0.278081,300000,0.978172,0.941701,0.878501,
0.288056,310000,0.978294,0.942067,0.879312,
0.297333,320000,0.978468,0.942561,0.880377,
0.305784,330000,0.978703,0.943202,0.88173,
0.313879,340000,0.978735,0.943334,0.882065,
0.321916,350000,0.978788,0.943517,0.882497,
0.330023,360000,0.978726,0.943411,0.882349,
0.338262,370000,0.978818,0.943688,0.882963,
0.34628,380000,0.978926,0.944002,0.88365,
0.354471,390000,0.978999,0.944226,0.884154,
0.363322,400000,0.979229,0.944844,0.885443,
0.371285,410000,0.97939,0.945285,0.886377,
0.379429,420000,0.979484,0.945559,0.886976,
0.387657,430000,0.979548,0.945755,0.887416,
0.395936,440000,0.979743,0.94628,0.888513,
0.404278,450000,0.979912,0.946737,0.889471,
0.415001,460000,0.980005,0.947002,0.890045,
0.425477,470000,0.980187,0.947489,0.891063,
0.43584,480000,0.980187,0.94752,0.891164,
0.445832,490000,0.98022,0.947632,0.891429,
0.455783,500000,0.980219,0.947659,0.891521,
0.46557,510000,0.980281,0.947844,0.891929,
0.475662,520000,0.980326,0.947984,0.892245,
0.485334,530000,0.980354,0.948081,0.892475,
0.495367,540000,0.980412,0.94825,0.892847,
0.505656,550000,0.98043,0.948321,0.893023,
0.515811,560000,0.980513,0.948552,0.893518,
0.526371,570000,0.980585,0.948758,0.89396,
0.536629,580000,0.980586,0.948785,0.894044,
0.546643,590000,0.980669,0.949014,0.894534,
0.55645,600000,0.980683,0.949071,0.894675,
0.566441,610000,0.980736,0.949224,0.895012,
0.576423,620000,0.980748,0.949277,0.895144,
0.586256,630000,0.980786,0.949392,0.895401,
0.596153,640000,0.980829,0.949519,0.895682,
0.605921,650000,0.980901,0.94972,0.89611,
0.615744,660000,0.980972,0.949916,0.896527,
0.626046,670000,0.981023,0.950062,0.896843,
0.635837,680000,0.981125,0.950336,0.897417,
0.646106,690000,0.981149,0.950415,0.897598,
0.656004,700000,0.981127,0.950377,0.897546,
0.665862,710000,0.981202,0.950581,0.897976,
0.675771,720000,0.981258,0.950738,0.898313,
0.685702,730000,0.981329,0.950933,0.898723,
0.695558,740000,0.981323,0.950933,0.898745,
0.705361,750000,0.981343,0.951001,0.898901,
0.715296,760000,0.981411,0.951185,0.899291,
0.725334,770000,0.981441,0.951275,0.899491,
0.735549,780000,0.981475,0.951376,0.899712,
0.74596,790000,0.981544,0.951563,0.900105,
0.755939,800000,0.981617,0.951758,0.900515,
0.76606,810000,0.981628,0.951801,0.900619,
0.775885,820000,0.981678,0.951941,0.900917,
0.785634,830000,0.981718,0.952054,0.901161,
0.795227,840000,0.981733,0.952105,0.901281,
0.805114,850000,0.981753,0.952167,0.901422,
0.814718,860000,0.9818,0.952298,0.901701,
0.824618,870000,0.981763,0.952219,0.90156,
0.834315,880000,0.98181,0.952347,0.901833,
0.844041,890000,0.981828,0.952405,0.901965,
0.853776,900000,0.981913,0.952629,0.902429,
0.863507,910000,0.981925,0.952673,0.902532,
0.873054,920000,0.98196,0.95277,0.902742,
0.882496,930000,0.981993,0.952866,0.902948,
0.891905,940000,0.982022,0.952949,0.903129,
0.901397,950000,0.982046,0.95302,0.903286,
0.911012,960000,0.982078,0.953111,0.903483,
0.92044,970000,0.982081,0.953129,0.903531,
0.929954,980000,0.982059,0.953085,0.903457,
0.939522,990000,0.982038,0.953042,0.903385,
0.949198,1000000,0.982061,0.95311,0.903536,
0.958869,1010000,0.98204,0.953068,0.903466,
0.969494,1020000,0.982055,0.953116,0.903574,
0.979691,1030000,0.982093,0.953222,0.903798,
0.989811,1040000,0.982162,0.953402,0.904172,
1.00025,1050000,0.982206,0.953522,0.904424,
1.00995,1060000,0.982234,0.953603,0.904598,
1.01944,1070000,0.982274,0.95371,0.904824,
1.02904,1080000,0.982308,0.953806,0.905029,
1.03856,1090000,0.98228,0.953745,0.904918,
1.04804,1100000,0.982304,0.953812,0.905065,
1.05761,1110000,0.982309,0.953834,0.905119,
1.06732,1120000,0.982321,0.953873,0.905209,
1.07702,1130000,0.98234,0.953929,0.905332,
1.08701,1140000,0.982359,0.953984,0.905455,
1.09661,1150000,0.982384,0.954057,0.90561,
1.10611,1160000,0.982406,0.954119,0.905746,
1.1157,1170000,0.982438,0.954206,0.905931,
1.1253,1180000,0.982496,0.95436,0.906249,
1.13482,1190000,0.982527,0.954444,0.906428,
1.14449,1200000,0.98256,0.954536,0.906621,
1.15414,1210000,0.982586,0.954609,0.906778,
1.16364,1220000,0.982596,0.954641,0.906851,
1.17327,1230000,0.982615,0.954696,0.906972,
1.1829,1240000,0.982644,0.954775,0.90714,
1.1928,1250000,0.982672,0.954853,0.907305,
1.20231,1260000,0.982655,0.954819,0.907246,
1.21185,1270000,0.982686,0.954904,0.907425,
1.22135,1280000,0.982707,0.954964,0.907554,
1.23092,1290000,0.982679,0.954899,0.907434,
1.24056,1300000,0.982709,0.954981,0.907608,
1.25017,1310000,0.982696,0.954956,0.907566,
1.25971,1320000,0.982729,0.955044,0.907752,
1.26932,1330000,0.98274,0.955079,0.907831,
1.27895,1340000,0.982748,0.955106,0.907894,
1.28869,1350000,0.982783,0.9552,0.908089,
1.29862,1360000,0.982767,0.955167,0.908032,
1.30819,1370000,0.982775,0.955193,0.908093,
1.31779,1380000,0.982812,0.955292,0.908298,
1.32728,1390000,0.98282,0.955317,0.908357,
1.33674,1400000,0.982827,0.955342,0.908415,
1.34614,1410000,0.98282,0.955331,0.908402,
1.35558,1420000,0.982859,0.955434,0.908615,
1.36532,1430000,0.982866,0.955458,0.908671,
1.37492,1440000,0.982865,0.955461,0.908684,
1.38442,1450000,0.982842,0.955409,0.908588,
1.39398,1460000,0.982887,0.955529,0.908836,
1.40381,1470000,0.9829,0.955566,0.908917,
1.41354,1480000,0.98291,0.955595,0.908984,
1.42422,1490000,0.98293,0.955651,0.909104,
1.43425,1500000,0.982952,0.955714,0.909236,
1.44375,1510000,0.982959,0.955736,0.909287,
1.45342,1520000,0.982955,0.955731,0.909284,
1.46288,1530000,0.98294,0.9557,0.90923,
1.47253,1540000,0.98296,0.955755,0.909346,
1.482,1550000,0.982961,0.955763,0.90937,
1.49163,1560000,0.982988,0.955836,0.909522,
1.50132,1570000,0.983017,0.955914,0.909685,
1.51093,1580000,0.983029,0.955947,0.909758,
1.5208,1590000,0.983035,0.955967,0.909805,
1.53069,1600000,0.983043,0.955993,0.909864,
1.54039,1610000,0.983064,0.95605,0.909985,
1.55008,1620000,0.983087,0.956113,0.910116,
1.55957,1630000,0.983105,0.956162,0.910222,
1.5692,1640000,0.9831,0.956157,0.910217,
1.57878,1650000,0.983099,0.956157,0.910224,
1.58831,1660000,0.983126,0.95623,0.910376,
1.59786,1670000,0.983165,0.956332,0.910586,
1.60746,1680000,0.983168,0.956343,0.910615,
1.61707,1690000,0.983201,0.956432,0.910798,
1.62681,1700000,0.983215,0.956472,0.910885,
1.63655,1710000,0.983232,0.956518,0.910983,
1.64624,1720000,0.983237,0.956534,0.911022,
1.65584,1730000,0.98325,0.956574,0.911106,
1.66545,1740000,0.98325,0.956578,0.911121,
1.67493,1750000,0.98326,0.956606,0.911182,
1.68441,1760000,0.98328,0.956661,0.911299,
1.69388,1770000,0.983298,0.95671,0.911403,
1.7034,1780000,0.983309,0.956742,0.911473,
1.713,1790000,0.983329,0.956796,0.911586,
1.72269,1800000,0.983344,0.956839,0.911677,
1.73233,1810000,0.983355,0.95687,0.911744,
1.74209,1820000,0.983383,0.956945,0.911899,
1.75174,1830000,0.983383,0.956947,0.91191,
1.76138,1840000,0.983378,0.956939,0.9119,
1.77092,1850000,0.98336,0.956899,0.911825,
1.78047,1860000,0.983371,0.956929,0.91189,
1.7898,1870000,0.983368,0.956927,0.911891,
1.79921,1880000,0.983361,0.956914,0.911871,
1.80874,1890000,0.983365,0.956928,0.911904,
1.81828,1900000,0.983363,0.956926,0.911905,
1.82779,1910000,0.983388,0.956993,0.912043,
1.83768,1920000,0.983373,0.956959,0.911981,
1.84731,1930000,0.983392,0.957009,0.912086,
1.85705,1940000,0.983408,0.957053,0.912179,
1.86685,1950000,0.983414,0.957072,0.912221,
1.87713,1960000,0.983427,0.95711,0.912303,
1.88722,1970000,0.983429,0.957118,0.912323,
1.89634,1980000,0.983431,0.957126,0.912343,
1.90717,1990000,0.983416,0.957093,0.912283,
1.91857,2000000,0.983434,0.957141,0.912384,
1.92962,2010000,0.983434,0.957144,0.912394,
1.9408,2020000,0.983439,0.957161,0.912433,
1.95241,2030000,0.983457,0.957208,0.912532,
1.9629,2040000,0.983472,0.95725,0.91262,
1.97418,2050000,0.983483,0.957281,0.912688,
1.98522,2060000,0.983496,0.957318,0.912765,
1.99575,2070000,0.983515,0.957368,0.91287,
2.00584,2080000,0.983535,0.957423,0.912984,
2.01623,2090000,0.983544,0.957448,0.913039,
2.02635,2100000,0.983538,0.957435,0.913018,
2.03662,2110000,0.983554,0.95748,0.913111,
2.0475,2120000,0.98355,0.957472,0.9131,
2.05818,2130000,0.98357,0.957525,0.91321,
2.06601,2140000,0.983599,0.957601,0.913367,
2.07591,2150000,0.983594,0.957593,0.913355,
2.08568,2160000,0.983597,0.957603,0.91338,
2.09561,2170000,0.983578,0.957558,0.913294,
2.10539,2180000,0.983566,0.957532,0.913246,
2.11497,2190000,0.983578,0.957565,0.913317,
2.12464,2200000,0.983583,0.95758,0.913351,
2.13428,2210000,0.9836,0.957627,0.913448,
2.14379,2220000,0.983623,0.957687,0.913572,
2.15337,2230000,0.983627,0.957701,0.913605,
2.16343,2240000,0.98363,0.957711,0.913628,
2.17459,2250000,0.983644,0.957748,0.913705,
2.18605,2260000,0.983657,0.957784,0.913782,
2.1969,2270000,0.983658,0.957789,0.913796,
2.20712,2280000,0.983664,0.957807,0.913836,
2.21767,2290000,0.98368,0.957851,0.913929,
2.22833,2300000,0.983698,0.9579,0.914029,
2.23801,2310000,0.983711,0.957935,0.914103,
2.24772,2320000,0.983703,0.957917,0.914072,
2.25736,2330000,0.983714,0.957948,0.914137,
2.2669,2340000,0.98372,0.957965,0.914175,
2.2771,2350000,0.983739,0.958016,0.914281,
2.28623,2360000,0.98375,0.958046,0.914344,
2.29553,2370000,0.983767,0.958092,0.914441,
2.30473,2380000,0.983768,0.958096,0.914452,
2.31397,2390000,0.98379,0.958155,0.914573,
2.32327,2400000,0.983799,0.958179,0.914625,
2.3328,2410000,0.983809,0.958208,0.914686,
2.3417,2420000,0.983821,0.95824,0.914754,
2.3504,2430000,0.983816,0.958231,0.91474,
2.35896,2440000,0.983818,0.958239,0.914759,
2.36777,2450000,0.983812,0.958226,0.914737,
2.37635,2460000,0.983814,0.958233,0.914755,
2.38456,2470000,0.983819,0.958249,0.91479,
2.39306,2480000,0.98382,0.958253,0.9148,
2.40161,2490000,0.983831,0.958284,0.914867,
2.40967,2500000,0.983828,0.95828,0.914861,
2.40969,2500000,0.983828,0.95828,0.914861,
